<svg width="30" height="29" viewBox="0 0 30 29" fill="none" xmlns="http://www.w3.org/2000/svg">
<mask id="path-1-inside-1_2262_8577" fill="white">
<path d="M20.8631 0.782837C20.5519 0.782837 20.2534 0.906485 20.0334 1.12658C19.8134 1.34667 19.6897 1.64519 19.6897 1.95645C19.6897 5.41743 16.659 6.65089 13.823 6.65089H5.60958C4.36482 6.65089 3.17104 7.14548 2.29086 8.02586C1.41068 8.90624 0.916199 10.1003 0.916199 11.3453L0.916199 13.6926C0.918762 14.3952 1.07984 15.0883 1.38742 15.7201C1.695 16.3518 2.14116 16.906 2.69265 17.3413L6.88384 26.6973C7.18191 27.3676 7.66784 27.937 8.28279 28.3367C8.89773 28.7364 9.61534 28.9493 10.3487 28.9495C10.9322 28.9491 11.5064 28.8028 12.0189 28.5238C12.5315 28.2448 12.9661 27.8421 13.2833 27.3522C13.6005 26.8623 13.7902 26.3008 13.835 25.7189C13.8799 25.137 13.7786 24.5531 13.5402 24.0203L10.9589 18.387H13.823C16.659 18.387 19.6897 19.6205 19.6897 23.0814C19.6897 23.3927 19.8134 23.6912 20.0334 23.9113C20.2534 24.1314 20.5519 24.2551 20.8631 24.2551C21.1743 24.2551 21.4727 24.1314 21.6928 23.9113C21.9128 23.6912 22.0364 23.3927 22.0364 23.0814V1.95645C22.0364 1.64519 21.9128 1.34667 21.6928 1.12658C21.4727 0.906485 21.1743 0.782837 20.8631 0.782837V0.782837ZM11.4024 24.9815C11.4801 25.1571 11.5128 25.3493 11.4975 25.5406C11.4822 25.732 11.4194 25.9166 11.3147 26.0775C11.2101 26.2385 11.0669 26.3708 10.8982 26.4624C10.7296 26.554 10.5407 26.6021 10.3487 26.6023C10.0688 26.6021 9.79488 26.5206 9.56034 26.3677C9.3258 26.2147 9.14071 25.997 9.02754 25.7409L5.73279 18.387H8.37751L11.4024 24.9815ZM19.6897 17.9176C18.0134 16.6256 15.9378 15.9613 13.823 16.0398H5.60958C4.9872 16.0398 4.39031 15.7925 3.95022 15.3523C3.51013 14.9121 3.26289 14.3151 3.26289 13.6926V11.3453C3.26289 10.7228 3.51013 10.1258 3.95022 9.6856C4.39031 9.24541 4.9872 8.99812 5.60958 8.99812H13.823C15.9371 9.07827 18.0126 8.41604 19.6897 7.12621V17.9176ZM28.9592 18.9175C28.8903 19.0555 28.795 19.1785 28.6786 19.2796C28.5622 19.3807 28.427 19.4579 28.2808 19.5067C28.1346 19.5556 27.9801 19.5751 27.8264 19.5642C27.6726 19.5533 27.5224 19.5122 27.3845 19.4433L25.0379 18.2696C24.7593 18.1305 24.5475 17.8864 24.4489 17.591C24.3503 17.2957 24.3731 16.9732 24.5122 16.6947C24.6513 16.4161 24.8953 16.2042 25.1906 16.1056C25.4859 16.007 25.8083 16.0297 26.0868 16.1689L28.4335 17.3425C28.7106 17.4815 28.9214 17.7246 29.0199 18.0186C29.1184 18.3126 29.0966 18.6337 28.9592 18.9116V18.9175ZM24.5122 8.35498C24.4433 8.21705 24.4022 8.06689 24.3913 7.91307C24.3804 7.75925 24.3999 7.60479 24.4487 7.45853C24.4975 7.31226 24.5747 7.17705 24.6758 7.06062C24.7769 6.94419 24.8999 6.84883 25.0379 6.77999L27.3845 5.60638C27.6631 5.46725 27.9854 5.44447 28.2807 5.54308C28.576 5.64168 28.8201 5.85358 28.9592 6.13216C29.0983 6.41074 29.121 6.73317 29.0225 7.02854C28.9239 7.32391 28.712 7.56801 28.4335 7.70714L26.0868 8.88075C25.9489 8.94971 25.7988 8.99081 25.645 9.00171C25.4912 9.0126 25.3368 8.99308 25.1906 8.94425C25.0443 8.89542 24.9092 8.81824 24.7928 8.71713C24.6764 8.61602 24.581 8.49296 24.5122 8.35498ZM24.3831 12.5189C24.3831 12.2077 24.5067 11.9092 24.7268 11.6891C24.9468 11.469 25.2453 11.3453 25.5565 11.3453H27.9032C28.2144 11.3453 28.5128 11.469 28.7328 11.6891C28.9529 11.9092 29.0765 12.2077 29.0765 12.5189C29.0765 12.8302 28.9529 13.1287 28.7328 13.3488C28.5128 13.5689 28.2144 13.6926 27.9032 13.6926H25.5565C25.2453 13.6926 24.9468 13.5689 24.7268 13.3488C24.5067 13.1287 24.3831 12.8302 24.3831 12.5189Z"/>
</mask>
<path d="M20.8631 0.782837C20.5519 0.782837 20.2534 0.906485 20.0334 1.12658C19.8134 1.34667 19.6897 1.64519 19.6897 1.95645C19.6897 5.41743 16.659 6.65089 13.823 6.65089H5.60958C4.36482 6.65089 3.17104 7.14548 2.29086 8.02586C1.41068 8.90624 0.916199 10.1003 0.916199 11.3453L0.916199 13.6926C0.918762 14.3952 1.07984 15.0883 1.38742 15.7201C1.695 16.3518 2.14116 16.906 2.69265 17.3413L6.88384 26.6973C7.18191 27.3676 7.66784 27.937 8.28279 28.3367C8.89773 28.7364 9.61534 28.9493 10.3487 28.9495C10.9322 28.9491 11.5064 28.8028 12.0189 28.5238C12.5315 28.2448 12.9661 27.8421 13.2833 27.3522C13.6005 26.8623 13.7902 26.3008 13.835 25.7189C13.8799 25.137 13.7786 24.5531 13.5402 24.0203L10.9589 18.387H13.823C16.659 18.387 19.6897 19.6205 19.6897 23.0814C19.6897 23.3927 19.8134 23.6912 20.0334 23.9113C20.2534 24.1314 20.5519 24.2551 20.8631 24.2551C21.1743 24.2551 21.4727 24.1314 21.6928 23.9113C21.9128 23.6912 22.0364 23.3927 22.0364 23.0814V1.95645C22.0364 1.64519 21.9128 1.34667 21.6928 1.12658C21.4727 0.906485 21.1743 0.782837 20.8631 0.782837V0.782837ZM11.4024 24.9815C11.4801 25.1571 11.5128 25.3493 11.4975 25.5406C11.4822 25.732 11.4194 25.9166 11.3147 26.0775C11.2101 26.2385 11.0669 26.3708 10.8982 26.4624C10.7296 26.554 10.5407 26.6021 10.3487 26.6023C10.0688 26.6021 9.79488 26.5206 9.56034 26.3677C9.3258 26.2147 9.14071 25.997 9.02754 25.7409L5.73279 18.387H8.37751L11.4024 24.9815ZM19.6897 17.9176C18.0134 16.6256 15.9378 15.9613 13.823 16.0398H5.60958C4.9872 16.0398 4.39031 15.7925 3.95022 15.3523C3.51013 14.9121 3.26289 14.3151 3.26289 13.6926V11.3453C3.26289 10.7228 3.51013 10.1258 3.95022 9.6856C4.39031 9.24541 4.9872 8.99812 5.60958 8.99812H13.823C15.9371 9.07827 18.0126 8.41604 19.6897 7.12621V17.9176ZM28.9592 18.9175C28.8903 19.0555 28.795 19.1785 28.6786 19.2796C28.5622 19.3807 28.427 19.4579 28.2808 19.5067C28.1346 19.5556 27.9801 19.5751 27.8264 19.5642C27.6726 19.5533 27.5224 19.5122 27.3845 19.4433L25.0379 18.2696C24.7593 18.1305 24.5475 17.8864 24.4489 17.591C24.3503 17.2957 24.3731 16.9732 24.5122 16.6947C24.6513 16.4161 24.8953 16.2042 25.1906 16.1056C25.4859 16.007 25.8083 16.0297 26.0868 16.1689L28.4335 17.3425C28.7106 17.4815 28.9214 17.7246 29.0199 18.0186C29.1184 18.3126 29.0966 18.6337 28.9592 18.9116V18.9175ZM24.5122 8.35498C24.4433 8.21705 24.4022 8.06689 24.3913 7.91307C24.3804 7.75925 24.3999 7.60479 24.4487 7.45853C24.4975 7.31226 24.5747 7.17705 24.6758 7.06062C24.7769 6.94419 24.8999 6.84883 25.0379 6.77999L27.3845 5.60638C27.6631 5.46725 27.9854 5.44447 28.2807 5.54308C28.576 5.64168 28.8201 5.85358 28.9592 6.13216C29.0983 6.41074 29.121 6.73317 29.0225 7.02854C28.9239 7.32391 28.712 7.56801 28.4335 7.70714L26.0868 8.88075C25.9489 8.94971 25.7988 8.99081 25.645 9.00171C25.4912 9.0126 25.3368 8.99308 25.1906 8.94425C25.0443 8.89542 24.9092 8.81824 24.7928 8.71713C24.6764 8.61602 24.581 8.49296 24.5122 8.35498ZM24.3831 12.5189C24.3831 12.2077 24.5067 11.9092 24.7268 11.6891C24.9468 11.469 25.2453 11.3453 25.5565 11.3453H27.9032C28.2144 11.3453 28.5128 11.469 28.7328 11.6891C28.9529 11.9092 29.0765 12.2077 29.0765 12.5189C29.0765 12.8302 28.9529 13.1287 28.7328 13.3488C28.5128 13.5689 28.2144 13.6926 27.9032 13.6926H25.5565C25.2453 13.6926 24.9468 13.5689 24.7268 13.3488C24.5067 13.1287 24.3831 12.8302 24.3831 12.5189Z" fill="#1855AB"/>
<path d="M20.8631 0.782837V3.28284H23.3631V0.782837H20.8631ZM5.60958 6.65089V4.15089V6.65089ZM0.916199 11.3453L-1.5838 11.3453L0.916199 11.3453ZM0.916199 13.6926H-1.58382L-1.58378 13.7017L0.916199 13.6926ZM2.69265 17.3413L4.97418 16.3193L4.7233 15.7592L4.2416 15.379L2.69265 17.3413ZM6.88384 26.6973L9.16813 25.6814L9.16537 25.6753L6.88384 26.6973ZM10.3487 28.9495L10.348 31.4495L10.3503 31.4495L10.3487 28.9495ZM13.5402 24.0203L15.8223 22.9994L15.8177 22.9891L15.813 22.9789L13.5402 24.0203ZM10.9589 18.387V15.887H7.06332L8.68612 19.4284L10.9589 18.387ZM20.8631 0.782837V-1.71716H18.3631V0.782837H20.8631ZM11.4024 24.9815L13.6884 23.9695L13.6817 23.9543L13.6747 23.9392L11.4024 24.9815ZM10.3487 26.6023L10.347 29.1023L10.3508 29.1023L10.3487 26.6023ZM9.02754 25.7409L11.3143 24.7305L11.309 24.7187L9.02754 25.7409ZM5.73279 18.387V15.887H1.87326L3.4513 19.4092L5.73279 18.387ZM8.37751 18.387L10.6499 17.3447L9.98122 15.887H8.37751V18.387ZM19.6897 17.9176L18.1637 19.8977L22.1897 23.0005V17.9176H19.6897ZM13.823 16.0398V18.5398H13.8694L13.9157 18.5381L13.823 16.0398ZM3.26289 13.6926H0.762891H3.26289ZM3.26289 11.3453H5.76289H3.26289ZM5.60958 8.99812V6.49812V8.99812ZM13.823 8.99812L13.9177 6.49991L13.8704 6.49812H13.823V8.99812ZM19.6897 7.12621H22.1897V2.04974L18.1657 5.14448L19.6897 7.12621ZM28.9592 18.9175L31.1963 20.0334L31.4592 19.5064V18.9175H28.9592ZM27.3845 19.4433L26.2663 21.6792L26.2664 21.6793L27.3845 19.4433ZM25.0379 18.2696L26.1561 16.0337L26.1551 16.0332L25.0379 18.2696ZM26.0868 16.1689L27.2051 13.9329L27.2041 13.9324L26.0868 16.1689ZM28.4335 17.3425L29.5548 15.108L29.5518 15.1065L28.4335 17.3425ZM28.9592 18.9116L26.718 17.8039L26.4592 18.3275V18.9116H28.9592ZM25.0379 6.77999L26.1542 9.01692L26.1561 9.01596L25.0379 6.77999ZM27.3845 5.60638L26.2673 3.36991L26.2663 3.37041L27.3845 5.60638ZM28.4335 7.70714L27.3163 5.47068L27.3153 5.47118L28.4335 7.70714ZM26.0868 8.88075L27.205 11.1168L27.2051 11.1167L26.0868 8.88075ZM20.8631 -1.71716C19.8887 -1.71716 18.9543 -1.32999 18.2654 -0.640988L21.8014 2.89415C21.5526 3.14296 21.2151 3.28284 20.8631 3.28284V-1.71716ZM18.2654 -0.640988C17.5766 0.0479948 17.1897 0.982333 17.1897 1.95645H22.1897C22.1897 2.30804 22.0501 2.64535 21.8014 2.89415L18.2654 -0.640988ZM17.1897 1.95645C17.1897 2.82199 16.8744 3.22742 16.4337 3.52101C15.8656 3.89948 14.9373 4.15089 13.823 4.15089V9.15089C15.5447 9.15089 17.5497 8.78557 19.206 7.68207C20.9897 6.49367 22.1897 4.55188 22.1897 1.95645H17.1897ZM13.823 4.15089H5.60958V9.15089H13.823V4.15089ZM5.60958 4.15089C3.7016 4.15089 1.87187 4.90901 0.522893 6.2583L4.05883 9.79343C4.47021 9.38196 5.02804 9.15089 5.60958 9.15089V4.15089ZM0.522893 6.2583C-0.826066 7.60756 -1.5838 9.43743 -1.5838 11.3453L3.4162 11.3453C3.4162 10.7632 3.64742 10.2049 4.05883 9.79343L0.522893 6.2583ZM-1.5838 11.3453V13.6926L3.4162 13.6926V11.3453L-1.5838 11.3453ZM-1.58378 13.7017C-1.57985 14.7805 -1.33257 15.8445 -0.860337 16.8144L3.63517 14.6257C3.49224 14.3321 3.41737 14.01 3.41618 13.6834L-1.58378 13.7017ZM-0.860337 16.8144C-0.388106 17.7843 0.296906 18.6352 1.14369 19.3036L4.2416 15.379C3.98541 15.1768 3.77811 14.9193 3.63517 14.6257L-0.860337 16.8144ZM0.411109 18.3634L4.6023 27.7194L9.16537 25.6753L4.97418 16.3193L0.411109 18.3634ZM4.59955 27.7132C5.094 28.825 5.90009 29.7697 6.92032 30.4328L9.64525 26.2406C9.43558 26.1043 9.26983 25.9101 9.16812 25.6815L4.59955 27.7132ZM6.92032 30.4328C7.94056 31.096 9.13117 31.4492 10.348 31.4495L10.3494 26.4495C10.0995 26.4494 9.85491 26.3769 9.64525 26.2406L6.92032 30.4328ZM10.3503 31.4495C11.3509 31.4489 12.3354 31.1979 13.2141 30.7196L10.8238 26.328C10.6775 26.4076 10.5136 26.4494 10.3471 26.4495L10.3503 31.4495ZM13.2141 30.7196C14.0929 30.2413 14.8381 29.5507 15.3819 28.7109L11.1848 25.9934C11.0942 26.1334 10.9701 26.2484 10.8238 26.328L13.2141 30.7196ZM15.3819 28.7109C15.9256 27.8711 16.2507 26.9086 16.3276 25.9111L11.3424 25.5267C11.3296 25.693 11.2754 25.8535 11.1848 25.9934L15.3819 28.7109ZM16.3276 25.9111C16.4046 24.9136 16.2308 23.9127 15.8223 22.9994L11.2582 25.0413C11.3263 25.1935 11.3553 25.3604 11.3424 25.5267L16.3276 25.9111ZM15.813 22.9789L13.2316 17.3456L8.68612 19.4284L11.2675 25.0618L15.813 22.9789ZM10.9589 20.887H13.823V15.887H10.9589V20.887ZM13.823 20.887C14.9373 20.887 15.8656 21.1384 16.4337 21.5169C16.8744 21.8105 17.1897 22.2159 17.1897 23.0814H22.1897C22.1897 20.486 20.9897 18.5442 19.206 17.3558C17.5497 16.2523 15.5447 15.887 13.823 15.887V20.887ZM17.1897 23.0814C17.1897 24.0556 17.5766 24.9899 18.2654 25.6789L21.8014 22.1438C22.0501 22.3925 22.1897 22.7299 22.1897 23.0814H17.1897ZM18.2654 25.6789C18.9543 26.3679 19.8887 26.7551 20.8631 26.7551V21.7551C21.2151 21.7551 21.5526 21.8949 21.8014 22.1438L18.2654 25.6789ZM20.8631 26.7551C21.8375 26.7551 22.7719 26.3679 23.4607 25.6789L19.9248 22.1438C20.1736 21.8949 20.5111 21.7551 20.8631 21.7551V26.7551ZM23.4607 25.6789C24.1496 24.9899 24.5364 24.0556 24.5364 23.0814H19.5364C19.5364 22.7299 19.6761 22.3925 19.9248 22.1438L23.4607 25.6789ZM24.5364 23.0814V1.95645H19.5364V23.0814H24.5364ZM24.5364 1.95645C24.5364 0.982333 24.1496 0.0479948 23.4607 -0.640988L19.9248 2.89415C19.6761 2.64535 19.5364 2.30804 19.5364 1.95645H24.5364ZM23.4607 -0.640988C22.7719 -1.32999 21.8375 -1.71716 20.8631 -1.71716V3.28284C20.5111 3.28284 20.1736 3.14296 19.9248 2.89415L23.4607 -0.640988ZM18.3631 0.782837V0.782837H23.3631V0.782837H18.3631ZM9.11639 25.9935C9.02571 25.7887 8.98759 25.5645 9.00545 25.3413L13.9895 25.74C14.038 25.134 13.9345 24.5254 13.6884 23.9695L9.11639 25.9935ZM9.00545 25.3413C9.02331 25.118 9.0966 24.9027 9.2187 24.7149L13.4107 27.4402C13.7421 26.9304 13.941 26.346 13.9895 25.74L9.00545 25.3413ZM9.2187 24.7149C9.34081 24.5271 9.50789 24.3726 9.70487 24.2656L12.0916 28.6592C12.6259 28.3689 13.0793 27.9499 13.4107 27.4402L9.2187 24.7149ZM9.70487 24.2656C9.90184 24.1586 10.1224 24.1025 10.3466 24.1023L10.3508 29.1023C10.9589 29.1018 11.5573 28.9495 12.0916 28.6592L9.70487 24.2656ZM10.3505 24.1023C10.5548 24.1024 10.7547 24.1619 10.9258 24.2735L8.19491 28.4618C8.83508 28.8792 9.58271 29.1017 10.347 29.1023L10.3505 24.1023ZM10.9258 24.2735C11.0969 24.385 11.2318 24.5438 11.3143 24.7305L6.7408 26.7512C7.04962 27.4502 7.55475 28.0444 8.19491 28.4618L10.9258 24.2735ZM11.309 24.7187L8.01427 17.3648L3.4513 19.4092L6.74606 26.763L11.309 24.7187ZM5.73279 20.887H8.37751V15.887H5.73279V20.887ZM6.10516 19.4293L9.13005 26.0238L13.6747 23.9392L10.6499 17.3447L6.10516 19.4293ZM21.2158 15.9374C19.077 14.289 16.4287 13.4414 13.7303 13.5415L13.9157 18.5381C15.4469 18.4812 16.9498 18.9622 18.1637 19.8977L21.2158 15.9374ZM13.823 13.5398H5.60958V18.5398H13.823V13.5398ZM5.60958 13.5398C5.65043 13.5398 5.68948 13.556 5.71819 13.5847L2.18226 17.1199C3.09114 18.029 4.32398 18.5398 5.60958 18.5398V13.5398ZM5.71819 13.5847C5.74688 13.6134 5.76289 13.6522 5.76289 13.6926L0.762891 13.6926C0.762891 14.9779 1.27339 16.2108 2.18226 17.1199L5.71819 13.5847ZM5.76289 13.6926V11.3453H0.762891V13.6926H5.76289ZM5.76289 11.3453C5.76289 11.3857 5.74688 11.4245 5.71819 11.4532L2.18226 7.91803C1.27339 8.82711 0.762891 10.06 0.762891 11.3453L5.76289 11.3453ZM5.71819 11.4532C5.68948 11.4819 5.65043 11.4981 5.60958 11.4981V6.49812C4.32398 6.49812 3.09114 7.00894 2.18226 7.91803L5.71819 11.4532ZM5.60958 11.4981H13.823V6.49812H5.60958V11.4981ZM13.7283 11.4963C16.4258 11.5986 19.0739 10.7536 21.2138 9.10793L18.1657 5.14448C16.9512 6.07847 15.4484 6.55794 13.9177 6.49991L13.7283 11.4963ZM17.1897 7.12621V17.9176H22.1897V7.12621H17.1897ZM26.722 17.8016C26.7998 17.6457 26.9076 17.5066 27.0392 17.3923L30.3181 21.167C30.6825 20.8505 30.9809 20.4653 31.1963 20.0334L26.722 17.8016ZM27.0392 17.3923C27.1707 17.278 27.3236 17.1907 27.489 17.1354L29.0726 21.878C29.5304 21.7252 29.9537 21.4835 30.3181 21.167L27.0392 17.3923ZM27.489 17.1354C27.6544 17.0802 27.8291 17.0581 28.003 17.0705L27.6497 22.058C28.1312 22.0921 28.6147 22.0309 29.0726 21.878L27.489 17.1354ZM28.003 17.0705C28.177 17.0828 28.3468 17.1293 28.5027 17.2073L26.2664 21.6793C26.6981 21.8951 27.1681 22.0238 27.6497 22.058L28.003 17.0705ZM28.5028 17.2073L26.1561 16.0337L23.9196 20.5056L26.2663 21.6792L28.5028 17.2073ZM26.1551 16.0332C26.4698 16.1904 26.709 16.4661 26.8203 16.7996L22.0775 18.3825C22.3859 19.3067 23.0489 20.0706 23.9206 20.5061L26.1551 16.0332ZM26.8203 16.7996C26.9316 17.133 26.9059 17.497 26.7489 17.8115L22.2755 15.5778C21.8403 16.4495 21.7691 17.4583 22.0775 18.3825L26.8203 16.7996ZM26.7489 17.8115C26.5918 18.126 26.3162 18.3654 25.9824 18.4769L24.3988 13.7343C23.4745 14.0429 22.7108 14.7061 22.2755 15.5778L26.7489 17.8115ZM25.9824 18.4769C25.6487 18.5883 25.2843 18.5626 24.9696 18.4053L27.2041 13.9324C26.3323 13.4969 25.3232 13.4256 24.3988 13.7343L25.9824 18.4769ZM24.9686 18.4048L27.3153 19.5785L29.5518 15.1065L27.2051 13.9329L24.9686 18.4048ZM27.3122 19.5769C26.9989 19.4197 26.7607 19.1449 26.6494 18.8127L31.3904 17.2245C31.0822 16.3043 30.4223 15.5434 29.5548 15.108L27.3122 19.5769ZM26.6494 18.8127C26.5381 18.4806 26.5628 18.1179 26.718 17.8039L31.2004 20.0194C31.6304 19.1494 31.6987 18.1446 31.3904 17.2245L26.6494 18.8127ZM26.4592 18.9116V18.9175H31.4592V18.9116H26.4592ZM26.7484 7.23721C26.8263 7.39305 26.8727 7.5627 26.885 7.73648L21.8975 8.08966C21.9316 8.57107 22.0602 9.04105 22.276 9.47274L26.7484 7.23721ZM26.885 7.73648C26.8973 7.91025 26.8753 8.08475 26.8201 8.25L22.0773 6.66706C21.9245 7.12484 21.8634 7.60825 21.8975 8.08966L26.885 7.73648ZM26.8201 8.25C26.765 8.41525 26.6778 8.56805 26.5635 8.69965L22.788 5.42159C22.4716 5.78604 22.2301 6.20926 22.0773 6.66706L26.8201 8.25ZM26.5635 8.69965C26.4493 8.83126 26.3102 8.93907 26.1542 9.01692L23.9215 4.54306C23.4896 4.75859 23.1045 5.05713 22.788 5.42159L26.5635 8.69965ZM26.1561 9.01596L28.5028 7.84235L26.2663 3.37041L23.9196 4.54402L26.1561 9.01596ZM28.5018 7.84285C28.187 8.00007 27.8227 8.02582 27.4889 7.91438L29.0725 3.17178C28.1482 2.86313 27.1391 2.93442 26.2673 3.36991L28.5018 7.84285ZM27.4889 7.91438C27.1552 7.80294 26.8796 7.56352 26.7225 7.24899L31.1958 5.01532C30.7606 4.14363 29.9969 3.48042 29.0725 3.17178L27.4889 7.91438ZM26.7225 7.24899C26.5655 6.93448 26.5398 6.5705 26.6511 6.23707L31.3939 7.82001C31.7023 6.89585 31.6311 5.88699 31.1958 5.01532L26.7225 7.24899ZM26.6511 6.23707C26.7623 5.90363 27.0016 5.62789 27.3163 5.47068L29.5508 9.94361C30.4225 9.50812 31.0854 8.74419 31.3939 7.82001L26.6511 6.23707ZM27.3153 5.47118L24.9686 6.64479L27.2051 11.1167L29.5518 9.94311L27.3153 5.47118ZM24.9687 6.64475C25.1246 6.56677 25.2944 6.52028 25.4683 6.50796L25.8217 11.4955C26.3032 11.4613 26.7733 11.3327 27.205 11.1168L24.9687 6.64475ZM25.4683 6.50796C25.6423 6.49563 25.817 6.51772 25.9824 6.57295L24.3988 11.3155C24.8567 11.4684 25.3402 11.5296 25.8217 11.4955L25.4683 6.50796ZM25.9824 6.57295C26.1478 6.62817 26.3006 6.71545 26.4322 6.82976L23.1533 10.6045C23.5177 10.921 23.9409 11.1627 24.3988 11.3155L25.9824 6.57295ZM26.4322 6.82976C26.5638 6.94406 26.6716 7.08316 26.7493 7.23908L22.2751 9.47088C22.4905 9.90276 22.7889 10.288 23.1533 10.6045L26.4322 6.82976ZM26.8831 12.5189C26.8831 12.8705 26.7435 13.2079 26.4948 13.4566L22.9588 9.92151C22.27 10.6105 21.8831 11.5448 21.8831 12.5189H26.8831ZM26.4948 13.4566C26.246 13.7055 25.9085 13.8453 25.5565 13.8453V8.84534C24.5821 8.84534 23.6477 9.23251 22.9588 9.92151L26.4948 13.4566ZM25.5565 13.8453H27.9032V8.84534H25.5565V13.8453ZM27.9032 13.8453C27.5511 13.8453 27.2136 13.7055 26.9649 13.4566L30.5008 9.92151C29.812 9.23251 28.8776 8.84534 27.9032 8.84534V13.8453ZM26.9649 13.4566C26.7161 13.2079 26.5765 12.8705 26.5765 12.5189H31.5765C31.5765 11.5448 31.1896 10.6105 30.5008 9.92151L26.9649 13.4566ZM26.5765 12.5189C26.5765 12.1674 26.7161 11.83 26.9649 11.5812L30.5008 15.1164C31.1896 14.4274 31.5765 13.4931 31.5765 12.5189H26.5765ZM26.9649 11.5812C27.2136 11.3324 27.5511 11.1926 27.9032 11.1926V16.1926C28.8776 16.1926 29.812 15.8054 30.5008 15.1164L26.9649 11.5812ZM27.9032 11.1926H25.5565V16.1926H27.9032V11.1926ZM25.5565 11.1926C25.9085 11.1926 26.246 11.3324 26.4948 11.5812L22.9588 15.1164C23.6477 15.8054 24.5821 16.1926 25.5565 16.1926V11.1926ZM26.4948 11.5812C26.7435 11.83 26.8831 12.1674 26.8831 12.5189H21.8831C21.8831 13.4931 22.27 14.4274 22.9588 15.1164L26.4948 11.5812Z" fill="#1855AB" mask="url(#path-1-inside-1_2262_8577)"/>
</svg>
