<svg width="83" height="67" viewBox="0 0 83 67" fill="none" xmlns="http://www.w3.org/2000/svg">
<rect opacity="0.05" width="68.8059" height="68.8059" rx="3.52333" transform="matrix(0.701155 -0.713009 0.701155 0.713009 35 49.0593)" fill="#9CB6DB"/>
<rect opacity="0.05" width="68.8059" height="68.8059" rx="3.52333" transform="matrix(0.701155 -0.713009 0.701155 0.713009 0.333984 56.6973)" fill="#9CB6DB"/>
</svg>
