<svg width="30" height="29" viewBox="0 0 30 29" fill="none" xmlns="http://www.w3.org/2000/svg">
<path d="M21.454 27.2297C20.1159 27.2297 18.7067 26.9099 17.2501 26.2942C15.829 25.6902 14.3961 24.8613 12.9988 23.8547L12.4777 23.4639C12.0869 23.1678 12.0159 22.6113 12.3119 22.2205C12.608 21.8297 13.1646 21.7586 13.5554 22.0547L14.0527 22.4218C15.3317 23.3573 16.6461 24.1152 17.9488 24.66C19.9738 25.5244 21.8685 25.7257 23.4317 25.0744C24.0356 24.8257 24.5685 24.4468 25.054 23.9021C25.3264 23.606 25.5396 23.2863 25.7172 22.9073C25.8593 22.6113 25.9304 22.3034 25.9304 21.9955C25.9304 21.806 25.8948 21.6165 25.8001 21.4034C25.7764 21.3442 25.6935 21.2021 25.4685 21.0481L21.5369 18.2534C21.3001 18.0876 21.0869 17.9692 20.8856 17.8863C20.5777 17.7678 20.3764 17.756 20.1159 17.9218C19.879 18.0402 19.6659 18.2178 19.429 18.4547L18.529 19.3428C18.0672 19.7928 17.3567 19.8994 16.8119 19.6981C16.7883 19.6863 16.6698 19.6389 16.6461 19.6271C16.6343 19.6152 16.504 19.5678 16.4922 19.556C16.2317 19.4257 15.9475 19.2363 15.6159 18.9994C15.2251 18.7152 15.1304 18.1586 15.4146 17.756C15.6988 17.3534 16.2554 17.2705 16.658 17.5547C16.9067 17.7323 17.1317 17.8744 17.3211 17.981L17.3093 18.0521L18.1738 17.1876C18.5409 16.8205 18.8961 16.5481 19.2396 16.3705C19.8909 15.9678 20.7198 15.8968 21.5488 16.2402C21.8567 16.3705 22.1883 16.5481 22.5435 16.7968L26.4751 19.5915C26.9014 19.8876 27.233 20.2665 27.4225 20.7165C27.6001 21.1665 27.683 21.581 27.683 21.9955C27.683 22.5639 27.5527 23.1323 27.304 23.6652C27.0554 24.1981 26.7475 24.66 26.3567 25.0863C25.6817 25.8323 24.9475 26.3652 24.0948 26.7086C23.2777 27.0521 22.3896 27.2297 21.454 27.2297ZM17.3093 18.0639L17.1198 18.8692L17.4396 18.0402C17.3922 18.0284 17.333 18.0402 17.3093 18.0639Z" fill="#9CB6DB"/>
<path d="M9.63556 20.7051C9.41056 20.7051 9.17372 20.6222 9.00793 20.4445C7.76451 19.1893 6.61583 17.8511 5.62109 16.4656C4.60267 15.0445 3.78556 13.6353 3.2053 12.2498C2.57767 10.7932 2.26978 9.37216 2.26978 8.034C2.26978 7.11032 2.43556 6.234 2.7553 5.4169C3.09872 4.56427 3.61978 3.79453 4.34214 3.11953C5.25399 2.23137 6.29609 1.76953 7.40925 1.76953C7.87109 1.76953 8.34478 1.87611 8.74741 2.06558C9.20925 2.27874 9.60004 2.59848 9.88425 3.02479L12.6316 6.89716C12.8803 7.24058 13.0698 7.57216 13.2 7.90374C13.354 8.259 13.4369 8.61427 13.4369 8.95769C13.4369 9.40769 13.3066 9.84585 13.0579 10.2603C12.8803 10.5801 12.6079 10.9235 12.2645 11.2669L11.4592 12.1077C11.4711 12.1432 11.4829 12.1669 11.4948 12.1906C11.6369 12.4393 11.9211 12.8656 12.4658 13.5051C13.0342 14.1682 13.5908 14.7603 14.1356 15.3287C14.479 15.684 14.479 16.2406 14.1237 16.584C13.7685 16.9274 13.2119 16.9274 12.8685 16.5722C12.2882 15.9801 11.7198 15.3524 11.1158 14.6537C10.5592 14.0024 10.1566 13.4458 9.90793 12.984C9.88425 12.9366 9.86057 12.8893 9.84872 12.8419L9.76583 12.6406C9.69478 12.3801 9.67109 12.2261 9.67109 12.0603C9.67109 11.634 9.82504 11.2551 10.1211 10.959L11.0092 10.0353C11.2461 9.79848 11.4237 9.57348 11.5421 9.37216C11.6369 9.21822 11.6724 9.08795 11.6724 8.96953C11.6724 8.87479 11.6369 8.73269 11.5777 8.59058C11.4829 8.36558 11.3527 8.16427 11.1869 7.92743L8.43951 4.04322C8.32109 3.87743 8.17899 3.759 8.00135 3.67611C7.82372 3.59322 7.62241 3.54585 7.40925 3.54585C6.75793 3.54585 6.15399 3.83006 5.57372 4.39848C5.04083 4.90769 4.65004 5.46427 4.4132 6.06822C4.16451 6.68401 4.04609 7.33532 4.04609 8.034C4.04609 9.13532 4.30662 10.3314 4.82767 11.563C5.36056 12.8182 6.10662 14.1208 7.05399 15.4235C8.00135 16.7261 9.07899 17.9932 10.2632 19.1893C10.6066 19.5327 10.6066 20.1011 10.2632 20.4445C10.0856 20.6222 9.86056 20.7051 9.63556 20.7051Z" fill="#9CB6DB"/>
<path d="M3.15802 27.23C2.93302 27.23 2.70802 27.1471 2.53039 26.9695C2.18697 26.6261 2.18697 26.0577 2.53039 25.7142L26.2146 2.03003C26.558 1.68661 27.1264 1.68661 27.4699 2.03003C27.8133 2.37345 27.8133 2.94187 27.4699 3.28529L3.78566 26.9695C3.60802 27.1471 3.38302 27.23 3.15802 27.23Z" fill="#9CB6DB"/>
</svg>
