<svg width="30" height="30" viewBox="0 0 30 30" fill="none" xmlns="http://www.w3.org/2000/svg">
<path d="M22.5 7.5L7.5 22.5Z" fill="white"/>
<path d="M22.5 7.5L7.5 22.5" stroke="white" stroke-width="1.5" stroke-linecap="round"/>
<path d="M22.5 22.5L7.5 7.5Z" fill="white"/>
<path d="M22.5 22.5L7.5 7.5" stroke="white" stroke-width="1.5" stroke-linecap="round"/>
</svg>
