<svg width="18" height="19" viewBox="0 0 18 19" fill="none" xmlns="http://www.w3.org/2000/svg">
<path d="M9 11.624H5.25C4.9425 11.624 4.6875 11.369 4.6875 11.0615C4.6875 10.754 4.9425 10.499 5.25 10.499H9C9.3075 10.499 9.5625 10.754 9.5625 11.0615C9.5625 11.369 9.3075 11.624 9 11.624Z" fill="#CE0000"/>
<path d="M5.25008 5.59383C5.10758 5.59383 4.96508 5.54133 4.85258 5.42883L2.04008 2.61633C1.82258 2.39883 1.82258 2.03883 2.04008 1.82133C2.25758 1.60383 2.61758 1.60383 2.83508 1.82133L5.64758 4.63383C5.86508 4.85133 5.86508 5.21133 5.64758 5.42883C5.53508 5.53383 5.39258 5.59383 5.25008 5.59383Z" fill="#CE0000"/>
<path d="M2.4073 5.6241C2.2648 5.6241 2.1223 5.5716 2.0098 5.4591C1.7923 5.2416 1.7923 4.8816 2.0098 4.6641L4.8223 1.8516C5.0398 1.6341 5.3998 1.6341 5.6173 1.8516C5.8348 2.0691 5.8348 2.4291 5.6173 2.6466L2.8048 5.4591C2.6998 5.5716 2.5498 5.6241 2.4073 5.6241Z" fill="#CE0000"/>
<path d="M11.25 8.62402H5.25C4.9425 8.62402 4.6875 8.36902 4.6875 8.06152C4.6875 7.75402 4.9425 7.49902 5.25 7.49902H11.25C11.5575 7.49902 11.8125 7.75402 11.8125 8.06152C11.8125 8.36902 11.5575 8.62402 11.25 8.62402Z" fill="#CE0000"/>
<path d="M15.75 13.124C15.4425 13.124 15.1875 12.869 15.1875 12.5615V6.55402C15.1875 3.38152 14.1075 2.73652 11.97 2.62402H7.5C7.1925 2.62402 6.9375 2.36902 6.9375 2.06152C6.9375 1.75402 7.1925 1.49902 7.5 1.49902H12C15.075 1.66402 16.3125 3.12652 16.3125 6.55402V12.5615C16.3125 12.869 16.0575 13.124 15.75 13.124Z" fill="#CE0000"/>
<path d="M11.25 17.6243H6.75C2.535 17.6243 1.6875 15.6818 1.6875 12.5468V7.31934C1.6875 7.01184 1.9425 6.75684 2.25 6.75684C2.5575 6.75684 2.8125 7.01184 2.8125 7.31934V12.5468C2.8125 15.3368 3.36 16.4993 6.75 16.4993H11.25C11.5575 16.4993 11.8125 16.7543 11.8125 17.0618C11.8125 17.3693 11.5575 17.6243 11.25 17.6243Z" fill="#CE0000"/>
<path d="M11.25 17.624C11.175 17.624 11.1075 17.609 11.0325 17.579C10.8225 17.489 10.6875 17.2865 10.6875 17.0615V14.8115C10.6875 12.9965 11.685 11.999 13.5 11.999H15.75C15.975 11.999 16.185 12.134 16.2675 12.344C16.35 12.554 16.305 12.794 16.1475 12.959L11.6475 17.459C11.5425 17.564 11.3925 17.624 11.25 17.624ZM13.5 13.124C12.315 13.124 11.8125 13.6265 11.8125 14.8115V15.704L14.3925 13.124H13.5Z" fill="#CE0000"/>
</svg>
