<svg width="28" height="29" viewBox="0 0 28 29" fill="none" xmlns="http://www.w3.org/2000/svg">
<g clip-path="url(#clip0_5216_144351)">
<path d="M14 0.5C11.2311 0.5 8.52431 1.32109 6.22202 2.85943C3.91973 4.39777 2.12532 6.58427 1.06569 9.14243C0.006066 11.7006 -0.271181 14.5155 0.269012 17.2313C0.809205 19.947 2.14258 22.4416 4.10051 24.3995C6.05845 26.3574 8.55301 27.6908 11.2687 28.231C13.9845 28.7712 16.7994 28.4939 19.3576 27.4343C21.9157 26.3747 24.1022 24.5803 25.6406 22.278C27.1789 19.9757 28 17.2689 28 14.5C27.996 10.7882 26.5197 7.22958 23.8951 4.60494C21.2704 1.9803 17.7118 0.504015 14 0.5V0.5ZM14 26.1667C11.6926 26.1667 9.43693 25.4824 7.51835 24.2005C5.59978 22.9185 4.10443 21.0964 3.22141 18.9646C2.33839 16.8328 2.10735 14.4871 2.55751 12.2239C3.00767 9.96084 4.11881 7.88203 5.75043 6.25042C7.38204 4.61881 9.46084 3.50767 11.724 3.05751C13.9871 2.60734 16.3328 2.83838 18.4646 3.72141C20.5965 4.60443 22.4185 6.09977 23.7005 8.01835C24.9824 9.93692 25.6667 12.1926 25.6667 14.5C25.6633 17.5932 24.433 20.5586 22.2458 22.7458C20.0586 24.933 17.0932 26.1633 14 26.1667Z" fill="white"/>
<path d="M14.8367 6.40639C14.1639 6.28381 13.4724 6.31059 12.8111 6.48484C12.1498 6.65909 11.5349 6.97655 11.0099 7.41475C10.4849 7.85295 10.0626 8.40119 9.77287 9.02066C9.48319 9.64013 9.33319 10.3157 9.3335 10.9996C9.3335 11.309 9.45641 11.6057 9.6752 11.8245C9.894 12.0433 10.1907 12.1662 10.5002 12.1662C10.8096 12.1662 11.1063 12.0433 11.3251 11.8245C11.5439 11.6057 11.6668 11.309 11.6668 10.9996C11.6665 10.6563 11.742 10.3172 11.8878 10.0064C12.0336 9.69569 12.2462 9.42093 12.5103 9.20176C12.7745 8.98259 13.0838 8.82441 13.4162 8.7385C13.7485 8.65258 14.0957 8.64105 14.433 8.70473C14.8939 8.79419 15.3176 9.01901 15.6501 9.35046C15.9826 9.68192 16.2087 10.105 16.2996 10.5656C16.3915 11.049 16.3281 11.5492 16.1185 11.9944C15.909 12.4397 15.564 12.8073 15.133 13.0447C14.4192 13.4583 13.8293 14.0557 13.4249 14.7747C13.0205 15.4937 12.8162 16.308 12.8335 17.1327V17.9996C12.8335 18.309 12.9564 18.6057 13.1752 18.8245C13.394 19.0433 13.6907 19.1662 14.0002 19.1662C14.3096 19.1662 14.6063 19.0433 14.8251 18.8245C15.0439 18.6057 15.1668 18.309 15.1668 17.9996V17.1327C15.1522 16.7267 15.2448 16.3241 15.4352 15.9652C15.6257 15.6064 15.9074 15.3041 16.2518 15.0887C17.0971 14.6245 17.7778 13.9098 18.2002 13.0429C18.6227 12.176 18.7663 11.1995 18.6111 10.2477C18.456 9.29587 18.0098 8.4155 17.3339 7.72764C16.658 7.03977 15.7856 6.5782 14.8367 6.40639Z" fill="white"/>
<path d="M15.1668 21.4997C15.1668 20.8553 14.6445 20.333 14.0002 20.333C13.3558 20.333 12.8335 20.8553 12.8335 21.4997C12.8335 22.144 13.3558 22.6664 14.0002 22.6664C14.6445 22.6664 15.1668 22.144 15.1668 21.4997Z" fill="white"/>
</g>
<defs>
<clipPath id="clip0_5216_144351">
<rect width="28" height="28" fill="white" transform="translate(0 0.5)"/>
</clipPath>
</defs>
</svg>
