<svg width="33" height="30" viewBox="0 0 33 30" fill="none" xmlns="http://www.w3.org/2000/svg">
<path d="M32.9023 2.59026C33.1516 0.864253 31.6199 -0.498099 30.1876 0.175705L1.65877 13.5961C0.631595 14.0793 0.70673 15.7463 1.77207 16.1098L7.65543 18.1172C8.7783 18.5003 9.99419 18.3022 10.9747 17.5764L24.2391 7.75773C24.6391 7.46164 25.0751 8.07099 24.7333 8.4485L15.1854 18.9957C14.2592 20.0188 14.443 21.7525 15.5571 22.501L26.2471 29.6835C27.446 30.4891 28.9885 29.6798 29.2128 28.1275L32.9023 2.59026Z" fill="url(#paint0_linear_1233_46482)"/>
<defs>
<linearGradient id="paint0_linear_1233_46482" x1="16.9291" y1="0" x2="16.9291" y2="30" gradientUnits="userSpaceOnUse">
<stop stop-color="#37BBFE"/>
<stop offset="1" stop-color="#007DBB"/>
</linearGradient>
</defs>
</svg>
