<svg width="33" height="30" viewBox="0 0 33 30" fill="none" xmlns="http://www.w3.org/2000/svg">
<path d="M32.9028 2.59026C33.1521 0.864253 31.6204 -0.498099 30.1881 0.175705L1.65926 13.5961C0.632083 14.0793 0.707219 15.7463 1.77256 16.1098L7.65592 18.1172C8.77879 18.5003 9.99468 18.3022 10.9752 17.5764L24.2396 7.75773C24.6396 7.46164 25.0756 8.07099 24.7338 8.44849L15.1859 18.9957C14.2596 20.0188 14.4435 21.7525 15.5576 22.501L26.2475 29.6835C27.4465 30.4891 28.989 29.6798 29.2133 28.1275L32.9028 2.59026Z" fill="url(#paint0_linear_1233_46483)"/>
<defs>
<linearGradient id="paint0_linear_1233_46483" x1="16.9296" y1="0" x2="16.9296" y2="30" gradientUnits="userSpaceOnUse">
<stop stop-color="#37BBFE"/>
<stop offset="1" stop-color="#007DBB"/>
</linearGradient>
</defs>
</svg>
