<svg width="42" height="43" viewBox="0 0 42 43" fill="none" xmlns="http://www.w3.org/2000/svg">
    <path d="M25.112 3.75h-8.225c-1.82 0-3.307 1.47-3.307 3.29v1.645c0 1.82 1.47 3.29 3.29 3.29h8.242c1.82 0 3.29-1.47 3.29-3.29V7.04c.018-1.82-1.47-3.29-3.29-3.29z" fill="#2D79E6"/>
    <path d="M30.17 8.684a5.071 5.071 0 0 1-5.057 5.058h-8.225a5.071 5.071 0 0 1-5.058-5.058c0-.98-1.05-1.592-1.925-1.137a7.826 7.826 0 0 0-4.147 6.912v16.468c0 4.305 3.517 7.822 7.822 7.822h14.84c4.305 0 7.823-3.517 7.823-7.822V14.459c0-2.992-1.68-5.6-4.148-6.912-.875-.455-1.925.157-1.925 1.137zm-8.505 21.228H14a1.322 1.322 0 0 1-1.312-1.313c0-.717.595-1.312 1.312-1.312h7.665c.718 0 1.313.595 1.313 1.312 0 .718-.595 1.313-1.313 1.313zm4.585-7H14a1.322 1.322 0 0 1-1.312-1.313c0-.717.595-1.312 1.312-1.312h12.25c.718 0 1.313.595 1.313 1.312 0 .718-.595 1.313-1.313 1.313z" fill="#2D79E6"/>
</svg>
