<svg width="105" height="142" viewBox="0 0 105 142" fill="none" xmlns="http://www.w3.org/2000/svg">
<mask id="mask0_8649_164684" style="mask-type:alpha" maskUnits="userSpaceOnUse" x="0" y="0" width="105" height="142">
<rect width="105" height="141.78" rx="9.43915" fill="#5486E9"/>
</mask>
<g mask="url(#mask0_8649_164684)">
<rect width="51.4257" height="51.4257" rx="2.29256" transform="matrix(0.67933 -0.733833 0.67933 0.733833 51.2324 33.1519)" fill="url(#paint0_linear_8649_164684)"/>
<rect width="51.4257" height="51.4257" rx="2.29256" transform="matrix(0.67933 -0.733833 0.67933 0.733833 29.2075 24.3823)" fill="url(#paint1_linear_8649_164684)" fill-opacity="0.6"/>
<rect width="51.4257" height="51.4257" rx="2.29256" transform="matrix(0.67933 -0.733833 0.67933 0.733833 -34.6875 55.1699)" fill="url(#paint2_linear_8649_164684)" fill-opacity="0.7"/>
<g filter="url(#filter0_d_8649_164684)">
<rect width="51.4257" height="51.4257" rx="2.29256" transform="matrix(0.67933 -0.733833 0.67933 0.733833 -48.3813 17.4316)" fill="url(#paint3_linear_8649_164684)" fill-opacity="0.7" shape-rendering="crispEdges"/>
</g>
</g>
<defs>
<filter id="filter0_d_8649_164684" x="-51.4692" y="-19.3208" width="76.0454" height="81.5049" filterUnits="userSpaceOnUse" color-interpolation-filters="sRGB">
<feFlood flood-opacity="0" result="BackgroundImageFix"/>
<feColorMatrix in="SourceAlpha" type="matrix" values="0 0 0 0 0 0 0 0 0 0 0 0 0 0 0 0 0 0 127 0" result="hardAlpha"/>
<feOffset dy="4"/>
<feGaussianBlur stdDeviation="2"/>
<feComposite in2="hardAlpha" operator="out"/>
<feColorMatrix type="matrix" values="0 0 0 0 0 0 0 0 0 0 0 0 0 0 0 0 0 0 0.25 0"/>
<feBlend mode="normal" in2="BackgroundImageFix" result="effect1_dropShadow_8649_164684"/>
<feBlend mode="normal" in="SourceGraphic" in2="effect1_dropShadow_8649_164684" result="shape"/>
</filter>
<linearGradient id="paint0_linear_8649_164684" x1="25.7128" y1="0" x2="25.7128" y2="51.4257" gradientUnits="userSpaceOnUse">
<stop stop-color="white" stop-opacity="0.04"/>
<stop offset="1" stop-color="white" stop-opacity="0.07"/>
</linearGradient>
<linearGradient id="paint1_linear_8649_164684" x1="25.7128" y1="0" x2="25.7128" y2="51.4257" gradientUnits="userSpaceOnUse">
<stop stop-color="white" stop-opacity="0.04"/>
<stop offset="1" stop-color="white" stop-opacity="0.07"/>
</linearGradient>
<linearGradient id="paint2_linear_8649_164684" x1="25.7128" y1="0" x2="25.7128" y2="51.4257" gradientUnits="userSpaceOnUse">
<stop stop-color="white" stop-opacity="0.04"/>
<stop offset="1" stop-color="white" stop-opacity="0.07"/>
</linearGradient>
<linearGradient id="paint3_linear_8649_164684" x1="25.7128" y1="0" x2="25.7128" y2="51.4257" gradientUnits="userSpaceOnUse">
<stop stop-color="white" stop-opacity="0.04"/>
<stop offset="1" stop-color="white" stop-opacity="0.07"/>
</linearGradient>
</defs>
</svg>
